<?xml version="1.0" encoding="UTF-8" standalone="no"?>
<!-- Created with Inkscape (http://www.inkscape.org/) -->
<svg
   xmlns:svg="http://www.w3.org/2000/svg"
   xmlns="http://www.w3.org/2000/svg"
   version="1.0"
   width="500"
   height="500"
   id="svg2584">
  <defs
     id="defs2586" />
  <g
     transform="translate(-1.0171383e-5,-552.36218)"
     id="layer1">
    <path
       d="M -200.26525 169.07306 A 85.54377 61.007957 0 1 1  -371.35279,169.07306 A 85.54377 61.007957 0 1 1  -200.26525 169.07306 z"
       transform="matrix(2.9224805,0,0,4.0978261,1085.2713,109.53019)"
       style="opacity:1;fill:#029fd4;fill-opacity:1;stroke:none;stroke-width:1;stroke-linecap:butt;stroke-linejoin:miter;stroke-miterlimit:4;stroke-dasharray:none;stroke-dashoffset:0;stroke-opacity:1"
       id="path2692" />
    <path
       d="M 120.1153,1016.0143 L 125.5308,975.80626 C 126.18889,975.80626 130.8263,977.22297 135.83616,978.95453 C 174.66353,992.07815 214.99172,1000.658 255.77203,991.87537 C 315.93348,978.36524 351.90745,907.5609 298.38005,859.45875 C 250.22778,816.18695 187.04149,811.4609 140.25333,769.55771 C 120.38928,750.67605 109.74735,730.88543 105.36824,704.68245 C 100.39335,669.92328 105.0663,639.16056 122.86017,608.80369 C 138.91473,586.16957 160.10906,569.94196 185.30387,560.78188 C 244.94259,545.05738 306.82778,551.29803 361.84648,578.72615 L 355.42367,624.25083 C 332.18459,616.46543 309.01255,609.5637 284.54444,607.18532 C 254.66373,604.87781 226.6649,609.62536 207.93645,620.17514 C 168.97861,643.78859 166.86586,692.26407 199.58259,719.83378 C 234.88285,749.58059 281.97697,760.76154 321.91395,783.69806 C 355.75917,804.58809 382.38184,833.72382 392.86759,872.47027 C 420.91233,971.6248 347.49344,1038.0217 301.02199,1047.3185 C 235.39704,1060.447 171.84091,1048.1567 120.1153,1016.0143 z "
       style="opacity:1;fill:#ffffff"
       id="path3832" />
  </g>
</svg>
